STAT 494: Alex Denzler: Assignment #2
…
lending_club %>% 
  count(Class)

# A tibble: 2 x 2
  Class     n
  <fct> <int>
1 bad     517
2 good   9340

lending_club %>% 
  group_by(addr_state) %>% 
  summarize(count = n()) %>% 
  arrange(desc(count))

# A tibble: 50 x 2
   addr_state count
   <fct>      <int>
 1 CA          1324
 2 TX           900
 3 NY           767
 4 FL           731
 5 IL           421
 6 NJ           349
 7 OH           328
 8 GA           320
 9 PA           299
10 NC           292
#  with 40 more rows
…
lending_recipe %>% 
  prep(lending_train) %>% 
  juice()

# A tibble: 9,643 x 113
   funded_amnt int_rate annual_inc delinq_2yrs inq_last_6mths
         <dbl>    <dbl>      <dbl>       <dbl>          <dbl>
 1      0.0248   0.0886     -0.858      -0.365         -0.705
 2      1.80    -0.292      -0.149      -0.365         -0.705
 3     -0.655    0.527      -0.149      -0.365          1.46 
 4      0.103    0.0277      0.407      -0.365         -0.705
 5     -1.38    -1.17       -0.569      -0.365         -0.705
 6     -0.655   -0.391      -0.916      -0.365         -0.705
 7     -0.544   -1.56       -0.283      -0.365         -0.705
 8     -0.0978  -0.831       2.08        1.82          -0.705
 9     -1.10    -0.710       0.177      -0.365          1.46 
10      0.459   -0.102      -0.609       0.726         -0.705
#  with 9,633 more rows, and 108 more variables: revol_util <dbl>,
#   open_il_6m <dbl>, open_il_12m <dbl>, open_il_24m <dbl>,
#   total_bal_il <dbl>, all_util <dbl>, inq_fi <dbl>,
#   inq_last_12m <dbl>, num_il_tl <dbl>,
#   total_il_high_credit_limit <dbl>, Class <fct>,
#   term_term_60 <dbl>, sub_grade_A2 <dbl>, sub_grade_A3 <dbl>,
#   sub_grade_A4 <dbl>, sub_grade_A5 <dbl>, sub_grade_B1 <dbl>,
#   sub_grade_B2 <dbl>, sub_grade_B3 <dbl>, sub_grade_B4 <dbl>,
#   sub_grade_B5 <dbl>, sub_grade_C1 <dbl>, sub_grade_C2 <dbl>,
…
