STAT 494: Alex Denzler: Assignment #3
…
late_flights_over20 <- tbl(con_air, "flights") %>% 
  filter(year == 2017) %>%
  group_by(origin, month) %>% 
  summarize(tot_depart = n(),
            avg_dist = mean(distance),
            prop_late_over20 = mean(arr_delay > 20)) %>% 
  inner_join(tbl(con_air, "airports"),
             by = c("origin" = "faa")) %>% 
  select(name, month, tot_depart, avg_dist, prop_late_over20)

late_flights_over20_df <- collect(late_flights_over20)
late_flights_over20_df

# A tibble: 3,466 x 6
# Groups:   origin [312]
   origin name              month tot_depart avg_dist prop_late_over20
   <chr>  <chr>             <int>      <dbl>    <dbl>            <dbl>
 1 ABE    Lehigh Valley In     8        180     562.           0.1   
 2 ABE    Lehigh Valley In     9        206     606.           0.0777
 3 ABE    Lehigh Valley In    10        253     593.           0.134 
 4 ABE    Lehigh Valley In    11        220     585.           0.0909
 5 ABE    Lehigh Valley In     1        191     580.           0.147 
 6 ABE    Lehigh Valley In    12        168     590.           0.208 
 7 ABE    Lehigh Valley In     2        128     601.           0.0703
 8 ABE    Lehigh Valley In     3        167     561.           0.162 
 9 ABE    Lehigh Valley In     4        139     586.           0.137 
10 ABE    Lehigh Valley In     5        160     574.           0.112 
#  with 3,456 more rows
…
Unnest Tokens: We want each row to represent a word from a tweet, rather than an entire tweet.

troll_tweets_untoken <- troll_tweets_clean %>%
  unnest_tokens(word, content)

troll_tweets_untoken

# A tibble: 2,430,135 x 21
   external_author author region language publish_date harvested_date
              <dbl> <chr>  <chr>  <chr>    <chr>        <chr>         
 1       2752677905 TODAY Unite English  5/23/2017 1 5/23/2017 18:
 2       2752677905 TODAY Unite English  5/23/2017 1 5/23/2017 18:
 3       2752677905 TODAY Unite English  5/23/2017 1 5/23/2017 18:
 4       2752677905 TODAY Unite English  5/23/2017 1 5/23/2017 18:
 5       2752677905 TODAY Unite English  5/23/2017 1 5/23/2017 18:
 6       2752677905 TODAY Unite English  5/23/2017 1 5/23/2017 18:
 7       2752677905 TODAY Unite English  5/23/2017 1 5/23/2017 18:
 8       2752677905 TODAY Unite English  5/23/2017 1 5/23/2017 18:
 9       2752677905 TODAY Unite English  5/23/2017 1 5/23/2017 18:
10       2752677905 TODAY Unite English  5/23/2017 1 5/23/2017 18:
#  with 2,430,125 more rows, and 15 more variables: following <dbl>,
#   followers <dbl>, updates <dbl>, post_type <lgl>,
#   account_type <chr>, retweet <dbl>, account_category <chr>,
#   new_june_2018 <dbl>, alt_external_id <dbl>, tweet_id <dbl>,
#   article_url <chr>, tco1_step1 <chr>, tco2_step1 <chr>,
#   tco3_step1 <lgl>, word <chr>
…
Sentiment Analysis

Get the sentiments using the bing parameter (which classifies words into positive or negative)

Report how many positive and negative words there are in the dataset. Are there more positive or negative words, and why do you think this might be?

get_sentiments("bing")

# A tibble: 6,786 x 2
   word        sentiment
   <chr>       <chr>    
 1 2-faces     negative 
 2 abnormal    negative 
 3 abolish     negative 
 4 abominable  negative 
 5 abominably  negative 
 6 abominate   negative 
 7 abomination negative 
 8 abort       negative 
 9 aborted     negative 
10 aborts      negative 
#  with 6,776 more rows
…
