STAT 494: Alex Denzler: Assignment #1
…
hotel_recipe <- recipe(is_canceled ~.,
                       data = hotel_train) %>% 
  step_mutate_at(children, babies, previous_cancellations,
                 fn = ~ifelse(. > 0, 1, 0)) %>% 
    step_mutate_at(agent, company,
                  fn = ~ifelse(. == "NULL", 1, 0)) %>% 
      step_mutate(country = fct_lump_n(country, 5)) %>% 
        step_normalize(all_numeric()) %>% 
          step_dummy(all_nominal(), -all_outcomes())

hotel_recipe %>% 
  prep(hotel_train) %>% 
  juice()

# A tibble: 59,693 x 76
   lead_time arrival_date_week_ arrival_date_day_ stays_in_weekend_
       <dbl>               <dbl>              <dbl>              <dbl>
 1    -0.907             -0.0141              -1.69            -0.933 
 2    -0.841             -0.0141              -1.69            -0.933 
 3    -0.176             -0.0141              -1.69            -0.933 
 4    -0.804             -0.0141              -1.69            -0.933 
 5    -0.335             -0.0141              -1.69            -0.933 
 6    -0.907             -0.0141              -1.69            -0.933 
 7    -0.626             -0.0141              -1.69             0.0761
 8    -0.298             -0.0141              -1.69             1.09  
 9    -0.298             -0.0141              -1.69             1.09  
10     0.217             -0.0141              -1.69             1.09  
#  with 59,683 more rows, and 72 more variables:
#   stays_in_week_nights <dbl>, adults <dbl>, children <dbl>,
#   babies <dbl>, is_repeated_guest <dbl>,
#   previous_cancellations <dbl>,
#   previous_bookings_not_canceled <dbl>, booking_changes <dbl>,
#   agent <dbl>, company <dbl>, days_in_waiting_list <dbl>,
#   adr <dbl>, required_car_parking_spaces <dbl>,
#   total_of_special_requests <dbl>, is_canceled <fct>,
#   hotel_Resort.Hotel <dbl>, arrival_date_month_August <dbl>,
…
best_param <- hotel_lasso_tune %>% 
  select_best(metric = "accuracy")

hotel_lasso_final_workflow <- hotel_workflow %>% 
  finalize_workflow(best_param)

hotel_lasso_final_mod <- hotel_lasso_final_workflow %>% 
  fit(data = hotel_train)

hotel_lasso_final_mod %>% 
  pull_workflow_fit() %>% 
  tidy()

# A tibble: 76 x 3
   term                      estimate      penalty
   <chr>                        <dbl>        <dbl>
 1 (Intercept)                -2.86   0.0000000001
 2 lead_time                   0.600  0.0000000001
 3 arrival_date_week_number   -0.196  0.0000000001
 4 arrival_date_day_of_month   0.0219 0.0000000001
 5 stays_in_weekend_nights     0.0952 0.0000000001
 6 stays_in_week_nights        0.137  0.0000000001
 7 adults                      0.0964 0.0000000001
 8 children                    0.0707 0.0000000001
 9 babies                      0.0299 0.0000000001
10 is_repeated_guest          -0.316  0.0000000001
#  with 66 more rows
…
